<svg id="Flying_Fish_Social_Icons-02" data-name="Flying Fish Social Icons-02" xmlns="http://www.w3.org/2000/svg" width="29.486" height="29.78" viewBox="0 0 29.486 29.78">
  <path id="Shape" d="M14.748,29.78h0A14.668,14.668,0,0,1,4.319,25.417,15,15,0,0,1,1.125,9.189a14.809,14.809,0,0,1,5.43-6.681A14.63,14.63,0,0,1,25.169,4.362,15,15,0,0,1,27,23.162a14.724,14.724,0,0,1-6.617,5.484A14.533,14.533,0,0,1,14.748,29.78ZM6.6,21.529h0a9.867,9.867,0,0,0,5.387,1.6A9.982,9.982,0,0,0,22.015,13v-.459A7.141,7.141,0,0,0,23.777,10.7a7,7,0,0,1-2.026.574A3.569,3.569,0,0,0,23.3,9.3a7,7,0,0,1-2.237.85A3.526,3.526,0,0,0,18.493,9.03a3.476,3.476,0,0,0-1.3.25,3.544,3.544,0,0,0-2.229,3.31,3.665,3.665,0,0,0,.092.81A9.975,9.975,0,0,1,7.787,9.682a3.587,3.587,0,0,0,1.091,4.751,3.5,3.5,0,0,1-1.6-.444v.045a3.563,3.563,0,0,0,2.826,3.487,3.478,3.478,0,0,1-.918.126,3.651,3.651,0,0,1-.663-.063,3.52,3.52,0,0,0,3.29,2.47A7.023,7.023,0,0,1,6.6,21.529Z" transform="translate(0)" fill="#baa769"/>
</svg>
